{
    "environment": "development",
    "testData": {
      "development": {
        "InstanceCount": 4,
        "OperatingSystem": "free",
        "ProvisioningModel": "regular",
        "MachineFamily": "general",
        "Series": "N1",
        "MachineType": "n1-standard-8",
        "AddGPU": true,
        "GPUType": "NVIDIA Tesla V100",
        "GPUCount": 1,
        "LocalSSD": "2x375",
        "DatacenterLocation": "europe-west3",
        "CommittedUsage": "1 Year"
      },
      "production": {
        "InstanceCount": 8,
        "OperatingSystem": "premium",
        "ProvisioningModel": "fast",
        "MachineFamily": "specific",
        "Series": "N2",
        "MachineType": "n2-highmem-16",
        "AddGPU": false,
        "LocalSSD": "1x500",
        "DatacenterLocation": "us-central1",
        "CommittedUsage": "3 Years"
      }
    }
  }
  